[
    {
		"id": "1",
        "name": "Kobe Bryant",
        "location": "Philadelphia, USA",
        "email": "kobe.bryant@adaptit.co.za"
    },
	{
		"id": "2",
        "name": "Lionel Messi",
        "location": "Rosario, Argentina",
        "email": "lionel.messi@adaptit.co.za"
    },
	{
		"id": "3",
        "name": "Rafael Nadal",
        "location": "Manacor, Spain",
        "email": "rafael.nadal@adaptit.co.za"
    },
	{
		"id": "4",
        "name": "Novak Djokovic",
        "location": "Belgrade, Serbia",
        "email": "novak.djokovic@adaptit.co.za"
    },
	{
		"id": "5",
        "name": "Cristiano Ronaldo",
        "location": "Funchal, Portugal",
        "email": "cristiano.ronaldo@adaptit.co.za"
    },
	{
		"id": "6",
        "name": "Luis Suárez",
        "location": "Salto, Uruguay",
        "email": "luis.suarez@adaptit.co.za"
    }
]
